%YAML 1.1
%TAG !u! tag:unity3d.com,2011:
--- !u!74 &7400000
AnimationClip:
  m_ObjectHideFlags: 0
  m_CorrespondingSourceObject: {fileID: 0}
  m_PrefabInstance: {fileID: 0}
  m_PrefabAsset: {fileID: 0}
  m_Name: red_pleyer_jump
  serializedVersion: 6
  m_Legacy: 0
  m_Compressed: 0
  m_UseHighQualityCurve: 1
  m_RotationCurves: []
  m_CompressedRotationCurves: []
  m_EulerCurves: []
  m_PositionCurves: []
  m_ScaleCurves: []
  m_FloatCurves: []
  m_PPtrCurves:
  - curve:
    - time: 0
      value: {fileID: 4634028770820986777, guid: ab874c1cf9aa96c48a10e15d5f5da823,
        type: 3}
    - time: 0.125
      value: {fileID: -5569178465567657468, guid: ab874c1cf9aa96c48a10e15d5f5da823,
        type: 3}
    - time: 0.25
      value: {fileID: -7438757590114663554, guid: ab874c1cf9aa96c48a10e15d5f5da823,
        type: 3}
    - time: 0.375
      value: {fileID: -5449907732312625636, guid: ab874c1cf9aa96c48a10e15d5f5da823,
        type: 3}
    - time: 0.5
      value: {fileID: -3792074828943905152, guid: ab874c1cf9aa96c48a10e15d5f5da823,
        type: 3}
    - time: 0.625
      value: {fileID: -2188902668699974647, guid: ab874c1cf9aa96c48a10e15d5f5da823,
        type: 3}
    - time: 0.75
      value: {fileID: 2318728332563376545, guid: ab874c1cf9aa96c48a10e15d5f5da823,
        type: 3}
    - time: 0.875
      value: {fileID: -8547794059721683520, guid: ab874c1cf9aa96c48a10e15d5f5da823,
        type: 3}
    attribute: m_Sprite
    path: 
    classID: 212
    script: {fileID: 0}
  m_SampleRate: 8
  m_WrapMode: 0
  m_Bounds:
    m_Center: {x: 0, y: 0, z: 0}
    m_Extent: {x: 0, y: 0, z: 0}
  m_ClipBindingConstant:
    genericBindings:
    - serializedVersion: 2
      path: 0
      attribute: 0
      script: {fileID: 0}
      typeID: 212
      customType: 23
      isPPtrCurve: 1
    pptrCurveMapping:
    - {fileID: 4634028770820986777, guid: ab874c1cf9aa96c48a10e15d5f5da823, type: 3}
    - {fileID: -5569178465567657468, guid: ab874c1cf9aa96c48a10e15d5f5da823, type: 3}
    - {fileID: -7438757590114663554, guid: ab874c1cf9aa96c48a10e15d5f5da823, type: 3}
    - {fileID: -5449907732312625636, guid: ab874c1cf9aa96c48a10e15d5f5da823, type: 3}
    - {fileID: -3792074828943905152, guid: ab874c1cf9aa96c48a10e15d5f5da823, type: 3}
    - {fileID: -2188902668699974647, guid: ab874c1cf9aa96c48a10e15d5f5da823, type: 3}
    - {fileID: 2318728332563376545, guid: ab874c1cf9aa96c48a10e15d5f5da823, type: 3}
    - {fileID: -8547794059721683520, guid: ab874c1cf9aa96c48a10e15d5f5da823, type: 3}
  m_AnimationClipSettings:
    serializedVersion: 2
    m_AdditiveReferencePoseClip: {fileID: 0}
    m_AdditiveReferencePoseTime: 0
    m_StartTime: 0
    m_StopTime: 1
    m_OrientationOffsetY: 0
    m_Level: 0
    m_CycleOffset: 0
    m_HasAdditiveReferencePose: 0
    m_LoopTime: 1
    m_LoopBlend: 0
    m_LoopBlendOrientation: 0
    m_LoopBlendPositionY: 0
    m_LoopBlendPositionXZ: 0
    m_KeepOriginalOrientation: 0
    m_KeepOriginalPositionY: 1
    m_KeepOriginalPositionXZ: 0
    m_HeightFromFeet: 0
    m_Mirror: 0
  m_EditorCurves: []
  m_EulerEditorCurves: []
  m_HasGenericRootTransform: 0
  m_HasMotionFloatCurves: 0
  m_Events: []
